…
first_mackerel <- mackerels %>%
  mutate(str_len = str_length(keyword)) %>%
  group_by(state) %>%
  arrange(desc(str_len)) %>%
  slice(1) 

first_mackerel %>%
  arrange(desc(str_len))

## # A tibble: 32 x 4
## # Groups:   state [32]
##    keyword                 state       composable str_len
##    <chr>                   <chr>       <lgl>        <int>
##  1 counterproductivenesses alabama     FALSE           23
##  2 hydrochlorofluorocarbon mississippi FALSE           23
##  3 overscrupulousnesses    hawaii      FALSE           20
##  4 microelectrophoretic    kansas      FALSE           20
##  5 transcendentalnesses    ohio        FALSE           20
##  6 expressionlessnesses    utah        FALSE           20
##  7 psychophysiologists     nevada      FALSE           19
##  8 intersubjectivities     oklahoma    FALSE           19
##  9 spectrophotometers      indiana     FALSE           18
## 10 biobibliographical      tennessee   FALSE           18
## # … with 22 more rows
…
